{
  "exclude": [
    "^(node_modules|bower_components|\\.imdone|target|build|dist|logs)[\\/\\\\]?|\\.(git|svn|hg|npmignore)|\\~$|\\.(jpg|png|gif|swp|ttf|otf)$"
  ],
  "watcher": true,
  "keepEmptyPriority": false,
  "code": {
    "include_lists": [
      "TODO",
      "TODO",
      "DOING",
      "DONE",
      "PLANNING",
      "FIXME",
      "ARCHIVE",
      "HACK",
      "CHANGED",
      "XXX",
      "IDEA",
      "NOTE",
      "REVIEW"
    ]
  },
  "lists": [
    {
      "name": "NOTE",
      "hidden": true
    },
    {
      "name": "TODO",
      "hidden": false
    }
  ],
  "marked": {
    "gfm": true,
    "tables": true,
    "breaks": false,
    "pedantic": false,
    "smartLists": true,
    "langPrefix": "language-"
  }
}